<?xml version="1.0" encoding="utf-8"?>
<!-- Generator: Adobe Illustrator 19.0.0, SVG Export Plug-In . SVG Version: 6.00 Build 0)  -->
<svg version="1.1" id="Layer_1" xmlns="http://www.w3.org/2000/svg" xmlns:xlink="http://www.w3.org/1999/xlink" x="0px" y="0px"
	 viewBox="0 0 400 400" style="enable-background:new 0 0 400 400;" xml:space="preserve">
<style type="text/css">
	.st0{fill:#ED413C;}
</style>
<g id="XMLID_654_">
	<path id="XMLID_655_" class="st0" d="M108.5,25c42,0,76.2,34.1,76.2,76.2c0,28.2-15.6,53.9-40.3,67.2c12.5,3.8,23.7,9.1,34.3,16.7
		c7.6,5.4-0.7,16.8-8.2,11.5c-17.9-12.9-40-19.2-62-19.2c-26.3,0-50.1,9-67.3,23.3C24.9,213.2,14,234.9,14,255.5
		c0,10.6,2.4,20.6,7.2,30c4.2,8.3-8.4,14.6-12.6,6.3c-5.7-11.3-8.8-23.8-8.8-36.4c0-25.5,12.2-48.6,31.9-65.3
		c10.8-9.8,27-17.7,40.9-21.9c-24.6-13.2-40.3-39-40.3-67.2C32.3,59.1,66.4,25,108.5,25z M204,285.6c4.2,8.3-8.4,14.6-12.6,6.3
		c-5.6-11.3-8.7-23.8-8.7-36.4c0-25.7,12.3-49,32.3-65.7c11.3-9.5,25.1-16.9,40.4-21.5c-24.6-13.2-40.3-39-40.3-67.2
		c0-42,34.1-76.2,76.1-76.2c42,0,76.2,34.1,76.2,76.2c0,28.1-15.6,53.9-40.3,67.2c15.4,4.5,29.1,12,40.4,21.5
		c19.7,17.9,32.3,38.3,32.3,65.7c0,12.6-3.1,25.1-8.8,36.4c-4.1,8.3-16.8,2-12.6-6.3c4.8-9.5,7.2-19.4,7.2-30
		c0-21.2-10.2-40.5-26.8-54.6c-20.4-16-41.5-23.6-67.6-23.6c-26.3,0-50.1,9-67.3,23.3c-16.8,14.1-27.2,33.5-27.2,54.9
		C196.8,266.1,199.2,276.1,204,285.6z M291.2,39.2c-34.2,0-62,27.7-62,62s27.7,62,62,62s62-27.7,62-62S325.5,39.2,291.2,39.2z
		 M108.5,39.2c-34.2,0-62,27.7-62,62s27.7,62,62,62s62-27.7,62-62S142.7,39.2,108.5,39.2z"/>
</g>
</svg>
